C:\Users\diegocasa\Documents\Projects\ProyectoRMI\src\main\java\RMI\RemoteInterface.java
C:\Users\diegocasa\Documents\Projects\ProyectoRMI\src\main\java\Cliente\MainCliente.java
C:\Users\diegocasa\Documents\Projects\ProyectoRMI\src\main\java\Server\MainServer.java
C:\Users\diegocasa\Documents\Projects\ProyectoRMI\src\main\java\Server\ServerImplements.java
