ws\ObjectFactory.class
vista\Principal$2.class
vista\Principal.class
ws\package-info.class
ws\AreaResponse.class
vista\Principal$1.class
ws\Area.class
ws\PCEjercicio2WS.class
ws\PCEjercicio2WS_Service.class
