C:\Users\diegocasa\Documents\Projects\ClientePCEjercicio2\src\main\java\vista\Principal.java
C:\Users\diegocasa\Documents\Projects\ClientePCEjercicio2\target\generated-sources\jaxws-wsimport\ws\package-info.java
C:\Users\diegocasa\Documents\Projects\ClientePCEjercicio2\target\generated-sources\jaxws-wsimport\ws\Area.java
C:\Users\diegocasa\Documents\Projects\ClientePCEjercicio2\target\generated-sources\jaxws-wsimport\ws\PCEjercicio2WS.java
C:\Users\diegocasa\Documents\Projects\ClientePCEjercicio2\target\generated-sources\jaxws-wsimport\ws\ObjectFactory.java
C:\Users\diegocasa\Documents\Projects\ClientePCEjercicio2\target\generated-sources\jaxws-wsimport\ws\PCEjercicio2WS_Service.java
C:\Users\diegocasa\Documents\Projects\ClientePCEjercicio2\target\generated-sources\jaxws-wsimport\ws\AreaResponse.java
